(Transform "BSplineTransform")
(NumberOfParameters 476)
(TransformParameters 101.249304 80.545839 73.242355 62.415207 50.428091 34.557794 15.159727 -5.910191 -27.256657 -47.529475 -65.568997 -81.086940 -91.775289 -102.705311 109.072429 91.718140 85.756626 74.595549 61.074007 48.069385 33.742464 8.139371 -26.987302 -57.823902 -78.861693 -93.463802 -102.296184 -103.245444 107.572858 94.249650 89.488243 74.722293 56.246781 53.310514 54.808222 27.103656 -22.218450 -66.490432 -87.746476 -99.230062 -105.343341 -99.617112 102.514046 95.509141 97.535211 73.204495 35.299922 47.772475 72.090563 33.334271 -18.126700 -69.549965 -91.854004 -101.020154 -104.109084 -91.805382 93.356572 93.186644 102.074697 85.214010 -9.547242 -9.836109 38.024176 15.878460 -19.800470 -73.711003 -86.925030 -95.511528 -94.113933 -78.965280 80.944695 81.616297 90.594854 76.560655 -22.734797 -28.487147 13.244818 71.429692 -35.627291 -89.693055 -73.060279 -81.730601 -77.264140 -61.211035 65.670158 55.804658 60.564314 27.385847 -22.344820 12.311107 -38.252155 20.454831 23.888409 -35.390956 -45.669670 -56.594018 -54.896446 -38.597294 51.103663 30.393758 28.756716 12.722376 -36.193590 9.353848 31.412887 -23.097404 13.994879 14.853891 -23.583540 -34.184202 -30.217630 -13.882652 40.783161 20.349544 21.865155 34.479983 -17.286090 -31.621758 34.410262 -5.082973 17.488935 31.419337 -34.339859 -17.358994 -5.273565 10.178427 34.579560 18.675343 23.117091 23.174729 1.213079 -53.639549 9.460744 -2.379034 -3.374007 23.537926 -0.712282 7.274134 18.519694 31.730539 32.357375 18.344001 21.150169 16.095725 0.698329 -10.539227 -11.071367 0.441021 -32.599432 -9.164328 26.152325 30.517128 39.412225 48.916475 31.859073 19.269318 19.202821 18.354082 24.051640 38.438567 -35.116463 -26.474699 -4.708484 -3.018230 13.202069 37.281587 52.149537 61.701697 30.770384 21.321666 20.821732 20.804419 21.374001 14.356659 -11.809797 -20.280089 -10.641951 8.388019 20.818746 33.769355 51.277847 70.022373 29.165622 23.216249 22.856553 21.681256 17.798189 14.373417 12.033839 -1.021827 -20.604780 -31.871360 3.194833 22.746364 44.689084 74.199539 26.331129 23.073069 23.112136 22.493376 20.603197 19.612128 12.369478 -2.178468 -13.947014 -18.420953 -4.365752 16.817823 40.791092 74.159499 22.859502 21.452817 21.950404 22.086433 21.108452 17.487666 10.019932 -1.884507 -13.176775 -13.284482 -1.280946 19.110133 39.709327 72.125568 8.368450 10.539615 12.316980 14.219045 15.154381 13.854712 10.366126 5.701226 2.175947 4.976844 14.432904 28.192936 40.067173 64.791518 26.723317 30.348678 31.716440 33.960326 36.209127 37.708848 37.758356 35.482669 31.207325 26.642642 22.583880 19.237948 16.946852 16.345971 50.570373 51.274688 47.876221 44.868829 43.985508 48.154974 54.275028 53.208875 44.815452 34.790764 26.339576 21.378573 19.398429 17.321762 55.803050 54.236702 47.538080 39.726530 34.464043 44.681166 58.620377 59.008583 49.718252 36.106998 23.558585 17.574077 16.574780 15.499501 58.662024 55.709950 48.404672 34.065004 28.671810 32.748261 50.289790 45.766041 39.928409 29.216288 17.957232 12.496507 13.026911 12.811920 57.267878 54.755293 51.362413 33.521904 -4.921424 -23.316594 -4.821264 25.285021 29.895550 20.261945 12.893780 9.485014 11.097201 10.222394 52.495637 45.222789 37.082015 7.031723 -16.473511 8.094260 -9.253896 -47.733951 -3.215758 7.734132 9.979381 11.486838 12.244946 7.441934 43.945918 27.121941 17.444509 6.900598 -20.987059 -27.138368 -43.394069 -74.437413 -56.595741 -12.454668 17.096307 21.243913 17.756941 4.111930 34.286454 7.432047 -6.405528 -3.573113 4.622522 -3.691374 5.500350 -4.359950 -33.206184 18.236378 38.506622 28.359597 20.745892 -0.497728 26.094789 -6.293534 -21.948038 -24.635431 14.928782 -2.481849 -15.860629 -1.330541 -30.540552 -5.595595 34.109576 21.962985 14.285990 -7.122473 20.330135 -14.496822 -31.789912 -27.196551 11.654254 22.729456 9.917328 32.981191 10.780514 -22.887552 0.015988 8.592260 4.487532 -16.081702 17.944743 -16.513969 -28.444612 -26.907165 -9.323852 23.077174 18.893992 -19.846315 -1.194795 6.912419 1.150474 4.176858 -2.535903 -27.699635 18.147052 -14.919667 -26.073383 -37.601819 -31.259149 -11.034869 35.782466 5.341820 -6.384460 18.745281 4.831501 0.823529 -11.071966 -40.789810 20.141434 -10.996963 -21.091798 -31.862421 -31.129588 -17.927543 -3.152629 35.470442 70.839462 59.874474 9.241451 -10.974053 -25.491422 -54.227950 23.641586 -5.285313 -14.387624 -24.747500 -33.548011 -37.502056 -37.172747 -28.896488 -9.252414 -13.682019 -32.552676 -31.486220 -43.536017 -67.088930 28.311307 1.708904 -6.895727 -18.875407 -31.474897 -40.595366 -35.100945 -38.020156 -52.631281 -60.097985 -58.045892 -57.125093 -63.883483 -79.313064 31.922569 7.257769 -0.992958 -13.548146 -25.926294 -36.117326 -43.840091 -55.427620 -69.629473 -75.045490 -75.769450 -78.013479 -80.230764 -88.808115 31.552860 10.751471 3.125003 -8.689463 -21.353004 -34.562921 -47.806324 -62.173854 -76.467748 -86.636539 -92.602305 -96.992029 -99.759735 -105.536552)
(InitialTransformParametersFileName "reg_16//000369_189_s01.log/TransformParameters.1.txt")
(UseBinaryFormatForTransformationParameters "false")
(HowToCombineTransforms "Compose")

// Image specific
(FixedImageDimension 2)
(MovingImageDimension 2)
(FixedInternalImagePixelType "float")
(MovingInternalImagePixelType "float")
(Size 1283 1773)
(Index 0 0)
(Spacing 1.0000000150 1.0000000150)
(Origin 0.0000000000 0.0000000000)
(Direction 1.0000000000 0.0000000000 0.0000000000 1.0000000000)
(UseDirectionCosines "true")

// BSplineTransform specific
(GridSize 14 17)
(GridIndex 0 0)
(GridSpacing 131.7457836525 123.8205991354)
(GridOrigin -215.3893127962 -256.2696684774)
(GridDirection 1.0000000000 0.0000000000 0.0000000000 1.0000000000)
(BSplineTransformSplineOrder 3)
(UseCyclicTransform "false")

// ResampleInterpolator specific
(ResampleInterpolator "FinalBSplineInterpolator")
(FinalBSplineInterpolationOrder 3)

// Resampler specific
(Resampler "DefaultResampler")
(DefaultPixelValue 0.000000)
(ResultImageFormat "mhd")
(ResultImagePixelType "float")
(CompressResultImage "false")
