(Transform "BSplineTransform")
(NumberOfParameters 476)
(TransformParameters 64.994217 66.797179 59.783047 48.482066 32.272828 10.246244 -16.725147 -46.201611 -74.862101 -96.907859 -110.956596 -118.978865 -123.537297 -112.312394 80.296026 95.671755 88.178857 71.693390 45.809898 20.802622 -3.614061 -39.586132 -84.633060 -122.253174 -146.898603 -158.183775 -161.580993 -134.438091 87.136396 115.882420 109.580730 84.992662 46.498169 21.394706 12.671044 -18.009908 -76.327444 -131.434185 -166.093592 -176.464159 -176.162792 -138.492437 89.245952 136.418766 132.947516 82.048142 37.554018 18.692866 33.781305 2.668172 -60.602115 -131.235051 -178.312298 -188.133789 -186.023069 -138.657645 78.560003 121.782377 118.019408 65.574588 0.217832 -2.919181 48.692049 2.768236 -17.199015 -80.312808 -151.029859 -184.724018 -182.819426 -132.219270 60.671406 79.476359 65.948116 31.520834 -18.589374 -34.062637 5.976208 46.202473 35.104566 -59.707402 -114.991154 -170.940191 -161.995383 -116.520850 40.769646 45.959032 35.506276 0.252356 -8.132334 8.159331 -25.706789 5.659477 25.089619 -25.166767 -42.865179 -94.630844 -109.208081 -87.693517 24.777886 25.220087 17.164411 1.848217 -22.253558 9.996108 25.923096 -12.184144 -0.373138 25.009902 -0.331211 -30.864587 -56.066749 -53.246111 18.683463 26.276970 19.776014 19.513193 -29.027696 -25.817321 14.157100 -1.957483 1.219080 20.235034 -5.047198 -12.488000 -24.812801 -20.567587 18.441106 38.490862 43.098990 30.632442 -23.233096 -22.917838 9.568371 0.192023 11.675062 18.029537 -4.844454 -7.225721 -3.267915 9.033783 19.995541 47.994520 52.607859 36.446654 -0.036703 -13.017510 -1.508300 -10.585087 -33.164893 -2.861851 9.911068 7.606865 19.194730 34.247802 20.656502 53.075650 56.330894 50.630193 35.041574 11.012966 -35.516179 0.479742 -14.866836 -7.069109 16.058165 21.277922 36.452397 54.067505 17.651836 50.964640 54.729869 51.170518 35.455827 19.823721 -15.053303 -19.628406 -6.225276 7.152742 13.818704 22.244846 41.714816 67.480638 11.573590 43.321595 46.523507 43.161747 30.066208 16.037959 7.082290 5.926830 -18.352618 -11.384692 3.776338 18.346277 40.221930 75.475812 1.877455 30.915805 34.061153 34.248962 27.307820 16.722109 4.891851 -2.008911 -22.362222 -14.911163 -2.242936 8.366145 36.820039 79.066733 -7.700529 18.564113 21.919415 24.800517 22.577078 14.817334 4.783975 -4.979666 -12.841827 -12.225743 -5.569365 9.179009 36.436290 80.072493 -29.251410 -9.689413 -5.092413 1.066939 5.172877 6.284102 4.739255 2.698632 2.265086 6.949004 17.104293 32.957583 48.068682 80.662358 7.328555 9.271864 13.296541 18.846218 24.668493 29.010328 31.414687 32.795897 33.306949 32.576410 30.692397 27.835135 24.991255 22.684117 27.414028 28.596334 30.716961 33.550427 36.490038 40.059460 41.782279 38.893432 36.288798 34.605588 33.549833 32.281723 31.222783 29.137845 33.166483 32.714720 31.878158 30.189714 31.013614 35.637543 48.133955 36.548805 32.557302 30.592040 28.941663 27.577840 27.866180 27.961352 38.316085 34.631399 28.803577 20.741028 53.364565 16.951614 25.432258 26.571582 26.470294 21.833182 21.323958 21.317957 23.593006 25.751173 41.507698 33.952937 24.412449 8.228659 -14.776828 -15.309436 -2.006174 26.587351 22.331654 0.364519 6.411438 17.408280 21.875227 23.911060 42.008354 25.804968 12.138236 3.096531 -19.986505 14.662968 21.024618 -37.287242 -30.497368 -18.794206 -0.995572 23.472107 22.873492 21.331667 38.164841 14.255485 -3.147770 -22.804447 -14.751863 -23.118534 -40.826077 -52.009653 -49.025797 -20.691385 5.273335 27.230600 23.753158 16.530879 32.824169 5.066656 -11.001043 -12.384009 6.207919 -6.151792 6.741048 2.078346 -23.722256 -0.006086 28.933366 27.334075 22.715097 10.802435 28.721402 1.699360 -11.977535 -16.319915 -1.574539 -15.114349 2.892410 -12.359283 -15.984063 -0.442463 22.813296 21.387182 17.406635 5.405201 25.401375 1.881893 -8.546753 -16.026180 5.261375 14.107074 6.018021 16.964339 9.111596 -12.645462 12.427234 14.355387 10.788526 -0.274029 22.398948 3.940162 -0.068480 1.279072 2.529409 18.757159 19.217622 -12.415405 -0.240612 -2.905463 8.579934 10.791080 6.731757 -6.852579 18.714096 2.309875 1.278965 2.104629 -5.622389 -0.466952 26.480092 -14.173439 1.342877 16.203452 5.480361 5.528861 1.349866 -15.009807 13.283986 -8.110607 -14.168996 -19.926191 -21.188534 -13.713383 19.941477 31.617360 38.622663 37.690940 10.821937 -3.420736 -9.169085 -25.524497 6.811060 -22.548172 -35.067070 -50.649033 -60.903906 -47.248056 -20.895701 -14.981784 12.098133 4.408556 -5.442986 -18.678979 -25.300178 -37.700222 -0.871447 -37.180589 -53.986950 -79.491813 -106.282213 -93.845080 -64.344009 -50.055351 -31.979525 -37.983699 -47.369308 -51.058293 -51.188538 -52.288744 -7.838585 -48.481203 -67.354894 -94.904772 -119.631737 -120.306613 -102.849160 -90.169396 -85.795152 -85.195191 -86.754136 -82.075712 -75.295089 -65.253981 -24.271513 -63.108657 -78.534290 -100.289575 -119.232071 -128.746772 -128.461122 -127.375999 -127.541087 -125.979157 -122.030525 -114.945758 -108.474491 -92.312111)
(InitialTransformParametersFileName "reg_16//000365_187_s01.log/TransformParameters.1.txt")
(UseBinaryFormatForTransformationParameters "false")
(HowToCombineTransforms "Compose")

// Image specific
(FixedImageDimension 2)
(MovingImageDimension 2)
(FixedInternalImagePixelType "float")
(MovingInternalImagePixelType "float")
(Size 1283 1773)
(Index 0 0)
(Spacing 1.0000000150 1.0000000150)
(Origin 0.0000000000 0.0000000000)
(Direction 1.0000000000 0.0000000000 0.0000000000 1.0000000000)
(UseDirectionCosines "true")

// BSplineTransform specific
(GridSize 14 17)
(GridIndex 0 0)
(GridSpacing 128.6254934827 124.1212692996)
(GridOrigin -144.9578605457 -279.8927771507)
(GridDirection 1.0000000000 0.0000000000 0.0000000000 1.0000000000)
(BSplineTransformSplineOrder 3)
(UseCyclicTransform "false")

// ResampleInterpolator specific
(ResampleInterpolator "FinalBSplineInterpolator")
(FinalBSplineInterpolationOrder 3)

// Resampler specific
(Resampler "DefaultResampler")
(DefaultPixelValue 0.000000)
(ResultImageFormat "mhd")
(ResultImagePixelType "float")
(CompressResultImage "false")
