001_s00.png
001_s01.png
001_s02.png
001_s03.png
002_s00.png
002_s01.png
002_s02.png
002_s03.png
003_s00.png
003_s01.png
003_s02.png
003_s03.png
004_s00.png
004_s01.png
004_s02.png
004_s03.png
004_s04.png
005_s00.png
005_s01.png
005_s02.png
005_s03.png
006_s00.png
006_s01.png
006_s02.png
006_s03.png
007_s00.png
007_s01.png
007_s02.png
007_s03.png
008_s00.png
008_s01.png
008_s02.png
008_s03.png
009_s00.png
009_s01.png
009_s02.png
009_s03.png
010_s00.png
010_s01.png
010_s02.png
010_s03.png
011_s00.png
011_s01.png
011_s02.png
011_s03.png
011_s04.png
011_s05.png
012_s00.png
012_s01.png
012_s02.png
012_s03.png
012_s04.png
012_s05.png
013_s00.png
013_s01.png
013_s02.png
013_s03.png
013_s04.png
013_s05.png
014_s00.png
014_s01.png
014_s02.png
014_s03.png
014_s04.png
014_s05.png
014_s06.png
015_s00.png
015_s01.png
015_s02.png
015_s03.png
015_s04.png
015_s05.png
015_s06.png
016_s00.png
016_s01.png
016_s02.png
016_s03.png
016_s04.png
016_s05.png
017_s00.png
017_s01.png
017_s02.png
017_s03.png
017_s04.png
017_s05.png
018_s00.png
018_s01.png
018_s02.png
018_s03.png
018_s04.png
018_s05.png
018_s06.png
019_s00.png
019_s01.png
019_s02.png
019_s03.png
019_s04.png
019_s05.png
020_s00.png
020_s01.png
020_s02.png
020_s03.png
020_s04.png
020_s05.png
020_s06.png
021_s00.png
021_s01.png
021_s02.png
021_s03.png
021_s04.png
021_s05.png
022_s00.png
022_s01.png
022_s02.png
022_s03.png
022_s04.png
022_s05.png
022_s06.png
023_s00.png
023_s01.png
023_s02.png
023_s03.png
023_s04.png
023_s05.png
024_s00.png
024_s01.png
024_s02.png
024_s03.png
024_s04.png
024_s05.png
025_s00.png
025_s01.png
025_s02.png
025_s03.png
025_s04.png
025_s05.png
026_s00.png
026_s01.png
026_s02.png
026_s03.png
026_s04.png
026_s05.png
027_s00.png
027_s01.png
027_s02.png
027_s03.png
027_s04.png
027_s05.png
028_s00.png
028_s01.png
028_s02.png
028_s03.png
028_s04.png
028_s05.png
029_s00.png
029_s01.png
029_s02.png
029_s03.png
029_s04.png
029_s05.png
030_s00.png
030_s01.png
030_s02.png
030_s03.png
031_s00.png
031_s01.png
031_s02.png
031_s03.png
032_s00.png
032_s01.png
032_s02.png
032_s03.png
033_s00.png
033_s01.png
033_s02.png
034_s00.png
034_s01.png
034_s02.png
034_s03.png
035_s00.png
035_s01.png
035_s02.png
035_s03.png
036_s00.png
036_s01.png
036_s02.png
036_s03.png
037_s00.png
037_s01.png
038_s00.png
038_s01.png
038_s02.png
038_s03.png
039_s00.png
039_s01.png
039_s02.png
039_s03.png
040_s00.png
040_s01.png
040_s02.png
040_s03.png
041_s00.png
041_s01.png
041_s02.png
041_s03.png
042_s00.png
042_s01.png
042_s02.png
042_s03.png
043_s00.png
043_s01.png
043_s02.png
043_s03.png
044_s00.png
044_s01.png
044_s02.png
044_s03.png
045_s00.png
045_s01.png
045_s02.png
045_s03.png
046_s00.png
046_s01.png
046_s02.png
046_s03.png
047_s00.png
047_s01.png
047_s02.png
047_s03.png
048_s00.png
048_s01.png
048_s02.png
048_s03.png
048_s04.png
049_s00.png
049_s01.png
049_s02.png
049_s03.png
050_s00.png
050_s01.png
050_s02.png
050_s03.png
051_s00.png
051_s01.png
051_s02.png
051_s03.png
052_s00.png
052_s01.png
052_s02.png
052_s03.png
053_s00.png
053_s01.png
053_s02.png
053_s03.png
054_s00.png
054_s01.png
054_s02.png
054_s03.png
055_s00.png
055_s01.png
056_s00.png
056_s01.png
056_s02.png
056_s03.png
057_s00.png
057_s01.png
057_s02.png
057_s03.png
058_s00.png
058_s01.png
058_s02.png
058_s03.png
059_s00.png
059_s01.png
059_s02.png
059_s03.png
060_s00.png
060_s01.png
060_s02.png
060_s03.png
061_s00.png
061_s01.png
061_s02.png
061_s03.png
062_s00.png
062_s01.png
062_s02.png
062_s03.png
063_s00.png
063_s01.png
063_s02.png
063_s03.png
064_s00.png
064_s01.png
064_s02.png
064_s03.png
065_s00.png
065_s01.png
065_s02.png
065_s03.png
066_s00.png
066_s01.png
066_s02.png
066_s03.png
067_s00.png
067_s01.png
067_s02.png
067_s03.png
068_s00.png
068_s01.png
069_s00.png
069_s01.png
070_s00.png
070_s01.png
071_s00.png
071_s01.png
072_s00.png
072_s01.png
073_s00.png
074_s00.png
074_s01.png
075_s00.png
075_s01.png
076_s00.png
076_s01.png
077_s00.png
077_s01.png
078_s00.png
078_s01.png
079_s00.png
079_s01.png
080_s00.png
080_s01.png
081_s00.png
081_s01.png
082_s00.png
082_s01.png
082_s02.png
083_s00.png
083_s01.png
084_s00.png
084_s01.png
085_s00.png
085_s01.png
086_s00.png
086_s01.png
087_s00.png
087_s01.png
088_s00.png
088_s01.png
089_s00.png
089_s01.png
090_s00.png
090_s01.png
091_s00.png
091_s01.png
092_s00.png
092_s01.png
093_s00.png
093_s01.png
094_s00.png
094_s01.png
095_s00.png
095_s01.png
096_s00.png
096_s01.png
097_s00.png
097_s01.png
098_s00.png
098_s01.png
099_s00.png
099_s01.png
099_s02.png
099_s03.png
100_s00.png
100_s01.png
100_s02.png
100_s03.png
101_s00.png
101_s01.png
101_s02.png
101_s03.png
101_s04.png
102_s00.png
102_s01.png
102_s02.png
102_s03.png
103_s00.png
103_s01.png
104_s00.png
104_s01.png
104_s02.png
104_s03.png
105_s00.png
105_s01.png
105_s02.png
105_s03.png
106_s00.png
106_s01.png
106_s02.png
106_s03.png
107_s00.png
107_s01.png
107_s02.png
107_s03.png
108_s00.png
108_s01.png
108_s02.png
108_s03.png
109_s00.png
109_s01.png
109_s02.png
109_s03.png
110_s00.png
110_s01.png
110_s02.png
110_s03.png
111_s00.png
111_s01.png
111_s02.png
111_s03.png
112_s00.png
112_s01.png
112_s02.png
112_s03.png
113_s00.png
113_s01.png
113_s02.png
113_s03.png
114_s00.png
114_s01.png
114_s02.png
114_s03.png
115_s00.png
115_s01.png
115_s02.png
115_s03.png
116_s00.png
116_s01.png
116_s02.png
116_s03.png
117_s00.png
117_s01.png
117_s02.png
117_s03.png
118_s00.png
118_s01.png
118_s02.png
118_s03.png
119_s00.png
119_s01.png
120_s00.png
120_s01.png
121_s00.png
121_s01.png
122_s00.png
122_s01.png
123_s00.png
123_s01.png
124_s00.png
124_s01.png
124_s02.png
125_s00.png
125_s01.png
126_s00.png
126_s01.png
127_s00.png
127_s01.png
128_s00.png
128_s01.png
129_s00.png
129_s01.png
129_s02.png
130_s00.png
130_s01.png
130_s02.png
130_s03.png
131_s00.png
131_s01.png
132_s00.png
132_s01.png
133_s00.png
133_s01.png
134_s00.png
134_s01.png
135_s00.png
135_s01.png
136_s00.png
136_s01.png
137_s00.png
137_s01.png
138_s00.png
138_s01.png
139_s00.png
139_s01.png
140_s00.png
140_s01.png
141_s00.png
141_s01.png
142_s00.png
142_s01.png
143_s00.png
143_s01.png
144_s00.png
144_s01.png
145_s00.png
145_s01.png
146_s00.png
146_s01.png
147_s00.png
147_s01.png
148_s00.png
148_s01.png
149_s00.png
149_s01.png
150_s00.png
150_s01.png
151_s00.png
151_s01.png
152_s00.png
152_s01.png
153_s00.png
153_s01.png
154_s00.png
154_s01.png
155_s00.png
155_s01.png
156_s00.png
157_s00.png
157_s01.png
158_s00.png
158_s01.png
159_s00.png
159_s01.png
160_s00.png
160_s01.png
161_s00.png
161_s01.png
162_s00.png
162_s01.png
163_s00.png
163_s01.png
164_s00.png
164_s01.png
165_s00.png
165_s01.png
166_s00.png
166_s01.png
167_s00.png
167_s01.png
168_s00.png
168_s01.png
169_s00.png
169_s01.png
169_s02.png
170_s00.png
170_s01.png
171_s00.png
171_s01.png
172_s00.png
173_s00.png
173_s01.png
174_s00.png
174_s01.png
175_s00.png
175_s01.png
176_s00.png
177_s00.png
177_s01.png
178_s00.png
178_s01.png
179_s00.png
179_s01.png
180_s00.png
181_s00.png
181_s01.png
182_s00.png
182_s01.png
183_s00.png
183_s01.png
184_s00.png
184_s01.png
185_s00.png
185_s01.png
186_s00.png
186_s01.png
187_s00.png
187_s01.png
188_s00.png
188_s01.png
189_s00.png
189_s01.png
190_s00.png
190_s01.png
191_s00.png
191_s01.png
192_s00.png
192_s01.png
193_s00.png
193_s01.png
194_s00.png
194_s01.png
195_s00.png
195_s01.png
196_s00.png
196_s01.png
197_s00.png
197_s01.png
198_s00.png
198_s01.png
199_s00.png
199_s01.png
200_s00.png
200_s01.png
201_s00.png
201_s01.png
201_s02.png
202_s00.png
202_s01.png
203_s00.png
203_s01.png
204_s00.png
204_s01.png
205_s00.png
205_s01.png
206_s00.png
206_s01.png
207_s00.png
207_s01.png
208_s00.png
208_s01.png
209_s00.png
209_s01.png
210_s00.png
210_s01.png
211_s00.png
211_s01.png
212_s00.png
212_s01.png
213_s00.png
213_s01.png
214_s00.png
214_s01.png
215_s00.png
215_s01.png
216_s00.png
216_s01.png
217_s00.png
217_s01.png
218_s00.png
218_s01.png
219_s00.png
219_s01.png
220_s00.png
220_s01.png
221_s00.png
221_s01.png
222_s00.png
222_s01.png
223_s00.png
223_s01.png
224_s00.png
224_s01.png
225_s00.png
225_s01.png
226_s00.png
226_s01.png
227_s00.png
227_s01.png
228_s00.png
228_s01.png
229_s00.png
229_s01.png
230_s00.png
230_s01.png
231_s00.png
231_s01.png
232_s00.png
232_s01.png
233_s00.png
234_s00.png
234_s01.png
234_s02.png
235_s00.png
235_s01.png
236_s00.png
236_s01.png
237_s00.png
237_s01.png
238_s00.png
238_s01.png
239_s00.png
239_s01.png
23B_s00.png
23B_s01.png
23B_s02.png
23B_s03.png
23B_s04.png
23B_s05.png
240_s00.png
240_s01.png
241_s00.png
241_s01.png
242_s00.png
242_s01.png
243_s00.png
243_s01.png
244_s00.png
244_s01.png
245_s00.png
245_s01.png
246_s00.png
246_s01.png
247_s00.png
247_s01.png
248_s00.png
248_s01.png
249_s00.png
249_s01.png
250_s00.png
250_s01.png
251_s00.png
251_s01.png
252_s00.png
252_s01.png
253_s00.png
253_s01.png
254_s00.png
254_s01.png
255_s00.png
255_s01.png
256_s00.png
256_s01.png
257_s00.png
257_s01.png
258_s00.png
258_s01.png
259_s00.png
259_s01.png
260_s00.png
260_s01.png
261_s00.png
261_s01.png
262_s00.png
262_s01.png
263_s00.png
263_s01.png
264_s00.png
265_s00.png
265_s01.png
266_s00.png
266_s01.png
267_s00.png
267_s01.png
268_s00.png
268_s01.png
269_s00.png
269_s01.png
270_s00.png
270_s01.png
271_s00.png
271_s01.png
272_s00.png
272_s01.png
273_s00.png
273_s01.png
274_s00.png
274_s01.png
275_s00.png
275_s01.png
276_s00.png
276_s01.png
277_s00.png
277_s01.png
278_s00.png
278_s01.png
279_s00.png
279_s01.png
280_s00.png
280_s01.png
281_s00.png
281_s01.png
282_s00.png
282_s01.png
283_s00.png
283_s01.png
284_s00.png
284_s01.png
285_s00.png
285_s01.png
286_s00.png
286_s01.png
287_s00.png
287_s01.png
288_s00.png
288_s01.png
289_s00.png
289_s01.png
290_s00.png
290_s01.png
291_s00.png
291_s01.png
292_s00.png
292_s01.png
293_s00.png
293_s01.png
294_s00.png
294_s01.png
295_s00.png
295_s01.png
296_s00.png
296_s01.png
297_s00.png
297_s01.png
298_s00.png
298_s01.png
299_s00.png
299_s01.png
300_s00.png
300_s01.png
301_s00.png
301_s01.png
302_s00.png
302_s01.png
303_s00.png
303_s01.png
304_s00.png
304_s01.png
305_s00.png
305_s01.png
306_s00.png
306_s01.png
307_s00.png
307_s01.png
308_s00.png
308_s01.png
309_s00.png
