  5.0% (1/20) 000797_289_s00.png reg_30//000797_289_s00.tif plain copy
 10.0% (2/20) reg_30//000797_289_s00.tif 000798_289_s01.png 199 -0.690989 ['-0.690989'] 199 -0.905625 ['-0.905625'] 999 -0.970562 ['-0.970562']
 15.0% (3/20) reg_30//000798_289_s01.tif 000799_290_s00.png 199 -0.789478 ['-0.789478'] 199 -0.920930 ['-0.920930'] 999 -0.969642 ['-0.969642']
 20.0% (4/20) reg_30//000799_290_s00.tif 000800_290_s01.png 199 -0.732837 ['-0.732837'] 199 -0.882331 ['-0.882331'] 999 -0.966169 ['-0.966169']
 25.0% (5/20) reg_30//000800_290_s01.tif 000801_291_s00.png 199 -0.793942 ['-0.793942'] 199 -0.896399 ['-0.896399'] 999 -0.960837 ['-0.960837']
 30.0% (6/20) reg_30//000801_291_s00.tif 000802_291_s01.png 199 -0.738720 ['-0.738720'] 199 -0.900790 ['-0.900790'] 999 -0.967039 ['-0.967039']
 35.0% (7/20) reg_30//000802_291_s01.tif 000803_292_s00.png 199 -0.732248 ['-0.732248'] 199 -0.829865 ['-0.829865'] 999 -0.916615 ['-0.916615']
 40.0% (8/20) reg_30//000803_292_s00.tif 000804_292_s01.png 199 -0.809303 ['-0.809303'] 199 -0.851659 ['-0.851659'] 999 -0.948497 ['-0.948497']
 45.0% (9/20) reg_30//000804_292_s01.tif 000805_293_s00.png 199 -0.734495 ['-0.734495'] 199 -0.808165 ['-0.808165'] 999 -0.915811 ['-0.915811']
 50.0% (10/20) reg_30//000805_293_s00.tif 000806_293_s01.png 199 -0.673738 ['-0.673738'] 199 -0.823775 ['-0.823775'] 999 -0.954433 ['-0.954433']
 55.0% (11/20) reg_30//000806_293_s01.tif 000807_294_s00.png 199 -0.750836 ['-0.750836'] 199 -0.802335 ['-0.802335'] 999 -0.960451 ['-0.960451']
 60.0% (12/20) reg_30//000807_294_s00.tif 000808_294_s01.png 199 -0.687437 ['-0.687437'] 199 -0.822173 ['-0.822173'] 999 -0.963986 ['-0.963986']
 65.0% (13/20) reg_30//000808_294_s01.tif 000809_295_s00.png 199 -0.784190 ['-0.784190'] 199 -0.805994 ['-0.805994'] 999 -0.967410 ['-0.967410']
 70.0% (14/20) reg_30//000809_295_s00.tif 000810_295_s01.png 199 -0.696438 ['-0.696438'] 199 -0.799762 ['-0.799762'] 999 -0.932004 ['-0.932004']
 75.0% (15/20) reg_30//000810_295_s01.tif 000811_296_s00.png 199 -0.698932 ['-0.698932'] 199 -0.780684 ['-0.780684'] 999 -0.958747 ['-0.958747']
 80.0% (16/20) reg_30//000811_296_s00.tif 000812_296_s01.png 199 -0.640173 ['-0.640173'] 199 -0.723498 ['-0.723498'] 999 -0.943532 ['-0.943532']
 85.0% (17/20) reg_30//000812_296_s01.tif 000813_297_s00.png 199 -0.695930 ['-0.695930'] 199 -0.740679 ['-0.740679'] 999 -0.956713 ['-0.956713']
 90.0% (18/20) reg_30//000813_297_s00.tif 000814_297_s01.png 199 -0.662333 ['-0.662333'] 199 -0.732080 ['-0.732080'] 999 -0.901086 ['-0.901086']
 95.0% (19/20) reg_30//000814_297_s01.tif 000815_298_s00.png 199 -0.618448 ['-0.618448'] 199 -0.683696 ['-0.683696'] 999 -0.917375 ['-0.917375']
100.0% (20/20) reg_30//000815_298_s00.tif 000816_298_s01.png 199 -0.707262 ['-0.707262'] 199 -0.733214 ['-0.733214'] 999 -0.952676 ['-0.952676']
