Start not found!
  4.2% (1/24) 000283_146_s04.png reg_13//000283_146_s04.tif plain copy
  8.3% (2/24) reg_13//000283_146_s04.tif 000284_146_s05.png 199 -0.792502 ['-0.792502'] 199 -0.904073 ['-0.904073'] 199 -0.973402 ['-0.973402']
 12.5% (3/24) reg_13//000284_146_s05.tif 000285_147_s02.png 199 -0.791307 ['-0.791307'] 199 -0.869299 ['-0.869299'] 199 -0.930936 ['-0.930936']
 16.7% (4/24) reg_13//000285_147_s02.tif 000286_147_s05.png 199 -0.927457 ['-0.927457'] 199 -0.935907 ['-0.935907'] 199 -0.970470 ['-0.970470']
 20.8% (5/24) reg_13//000286_147_s05.tif 000287_148_s02.png 199 -0.901679 ['-0.901679'] 199 -0.920940 ['-0.920940'] 199 -0.920891 ['-0.920891']
 25.0% (6/24) reg_13//000287_148_s02.tif 000288_148_s05.png 199 -0.760432 ['-0.760432'] 199 -0.877007 ['-0.877007'] 199 -0.974981 ['-0.974981']
 29.2% (7/24) reg_13//000288_148_s05.tif 000289_149_s04.png 199 -0.754158 ['-0.754158'] 199 -0.819232 ['-0.819232'] 199 -0.892873 ['-0.892873']
 33.3% (8/24) reg_13//000289_149_s04.tif 000290_149_s05.png 199 -0.771722 ['-0.771722'] 199 -0.883357 ['-0.883357'] 199 -0.973830 ['-0.973830']
 37.5% (9/24) reg_13//000290_149_s05.tif 000291_150_s02.png 199 -0.766656 ['-0.766656'] 199 -0.850577 ['-0.850577'] 199 -0.929098 ['-0.929098']
 41.7% (10/24) reg_13//000291_150_s02.tif 000292_150_s05.png 199 -0.812427 ['-0.812427'] 199 -0.862517 ['-0.862517'] 199 -0.890462 ['-0.890462']
 45.8% (11/24) reg_13//000292_150_s05.tif 000293_151_s03.png 199 -0.761392 ['-0.761392'] 199 -0.836001 ['-0.836001'] 199 -0.924591 ['-0.924591']
 50.0% (12/24) reg_13//000293_151_s03.tif 000294_151_s04.png 199 -0.729388 ['-0.729388'] 199 -0.780729 ['-0.780729'] 199 -0.876889 ['-0.876889']
 54.2% (13/24) reg_13//000294_151_s04.tif 000295_152_s01.png 199 -0.736319 ['-0.736319'] 199 -0.894100 ['-0.894100'] 199 -0.932486 ['-0.932486']
 58.3% (14/24) reg_13//000295_152_s01.tif 000296_152_s03.png 199 -0.751501 ['-0.751501'] 199 -0.853836 ['-0.853836'] 199 -0.971989 ['-0.971989']
 62.5% (15/24) reg_13//000296_152_s03.tif 000297_153_s01.png 199 -0.824156 ['-0.824156'] 199 -0.844153 ['-0.844153'] 199 -0.914719 ['-0.914719']
 66.7% (16/24) reg_13//000297_153_s01.tif 000298_153_s03.png 199 -0.686167 ['-0.686167'] 199 -0.871365 ['-0.871365'] 199 -0.974345 ['-0.974345']
 70.8% (17/24) reg_13//000298_153_s03.tif 000299_154_s01.png 199 -0.731956 ['-0.731956'] 199 -0.868863 ['-0.868863'] 199 -0.927435 ['-0.927435']
 75.0% (18/24) reg_13//000299_154_s01.tif 000300_154_s03.png 199 -0.720436 ['-0.720436'] 199 -0.850188 ['-0.850188'] 199 -0.969046 ['-0.969046']
 79.2% (19/24) reg_13//000300_154_s03.tif 000301_155_s00.png 199 -0.742488 ['-0.742488'] 199 -0.869558 ['-0.869558'] 199 -0.969263 ['-0.969263']
 83.3% (20/24) reg_13//000301_155_s00.tif 000302_155_s01.png 199 -0.739761 ['-0.739761'] 199 -0.843697 ['-0.843697'] 199 -0.969196 ['-0.969196']
 87.5% (21/24) reg_13//000302_155_s01.tif 000303_156_s00.png 199 -0.732222 ['-0.732222'] 199 -0.855634 ['-0.855634'] 199 -0.964201 ['-0.964201']
 91.7% (22/24) reg_13//000303_156_s00.tif 000304_156_s01.png 199 -0.723314 ['-0.723314'] 199 -0.815990 ['-0.815990'] 199 -0.962023 ['-0.962023']
 95.8% (23/24) reg_13//000304_156_s01.tif 000305_157_s00.png 199 -0.735142 ['-0.735142'] 199 -0.811256 ['-0.811256'] 199 -0.928032 ['-0.928032']
100.0% (24/24) reg_13//000305_157_s00.tif 000306_157_s01.png 199 -0.776627 ['-0.776627'] 199 -0.856760 ['-0.856760'] 199 -0.965780 ['-0.965780']
