  3.4% (1/29) 000048_025_s00.png reg_03//000048_025_s00.tif plain copy
  6.9% (2/29) reg_03//000048_025_s00.tif 000049_025_s01.png 199 -0.593965 ['-0.593965'] 199 -0.802980 ['-0.802980'] 199 -0.969377 ['-0.969377']
 10.3% (3/29) reg_03//000049_025_s01.tif 000050_026_s00.png 199 -0.774036 ['-0.774036'] 199 -0.850142 ['-0.850142'] 199 -0.972082 ['-0.972082']
 13.8% (4/29) reg_03//000050_026_s00.tif 000051_027_s00.png 199 -0.730293 ['-0.730293'] 199 -0.788257 ['-0.788257'] 199 -0.930931 ['-0.930931']
 17.2% (5/29) reg_03//000051_027_s00.tif 000052_027_s01.png 199 -0.697139 ['-0.697139'] 199 -0.858654 ['-0.858654'] 199 -0.972426 ['-0.972426']
 20.7% (6/29) reg_03//000052_027_s01.tif 000053_028_s00.png 199 -0.838109 ['-0.838109'] 199 -0.877883 ['-0.877883'] 199 -0.973951 ['-0.973951']
 24.1% (7/29) reg_03//000053_028_s00.tif 000054_028_s01.png 199 -0.610509 ['-0.610509'] 199 -0.848404 ['-0.848404'] 199 -0.968636 ['-0.968636']
 27.6% (8/29) reg_03//000054_028_s01.tif 000055_029_s00.png 199 -0.789898 ['-0.789898'] 199 -0.818455 ['-0.818455'] 199 -0.964635 ['-0.964635']
 31.0% (9/29) reg_03//000055_029_s00.tif 000056_029_s01.png 199 -0.664610 ['-0.664610'] 199 -0.834539 ['-0.834539'] 199 -0.966763 ['-0.966763']
 34.5% (10/29) reg_03//000056_029_s01.tif 000057_030_s00.png 199 -0.775445 ['-0.775445'] 199 -0.854948 ['-0.854948'] 199 -0.971286 ['-0.971286']
 37.9% (11/29) reg_03//000057_030_s00.tif 000058_030_s01.png 199 -0.592060 ['-0.592060'] 199 -0.823380 ['-0.823380'] 199 -0.952102 ['-0.952102']
 41.4% (12/29) reg_03//000058_030_s01.tif 000059_031_s00.png 199 -0.502517 ['-0.502517'] 199 -0.780721 ['-0.780721'] 199 -0.966339 ['-0.966339']
 44.8% (13/29) reg_03//000059_031_s00.tif 000060_031_s01.png 199 -0.515088 ['-0.515088'] 199 -0.802167 ['-0.802167'] 199 -0.962836 ['-0.962836']
 48.3% (14/29) reg_03//000060_031_s01.tif 000061_032_s00.png 199 -0.767060 ['-0.767060'] 199 -0.815864 ['-0.815864'] 199 -0.965684 ['-0.965684']
 51.7% (15/29) reg_03//000061_032_s00.tif 000062_032_s01.png 199 -0.628123 ['-0.628123'] 199 -0.802679 ['-0.802679'] 199 -0.962225 ['-0.962225']
 55.2% (16/29) reg_03//000062_032_s01.tif 000063_033_s00.png 199 -0.642348 ['-0.642348'] 199 -0.772471 ['-0.772471'] 199 -0.973139 ['-0.973139']
 58.6% (17/29) reg_03//000063_033_s00.tif 000064_033_s01.png 199 -0.612205 ['-0.612205'] 199 -0.774296 ['-0.774296'] 199 -0.966232 ['-0.966232']
 62.1% (18/29) reg_03//000064_033_s01.tif 000063_034_s00.png 199 -0.668780 ['-0.668780'] 199 -0.760512 ['-0.760512'] 199 -0.965302 ['-0.965302']
 65.5% (19/29) reg_03//000063_034_s00.tif 000064_034_s01.png 199 -0.636012 ['-0.636012'] 199 -0.758515 ['-0.758515'] 199 -0.942157 ['-0.942157']
 69.0% (20/29) reg_03//000064_034_s01.tif 000065_034_s00.png 199 -0.688718 ['-0.688718'] 199 -0.775887 ['-0.775887'] 199 -0.969680 ['-0.969680']
 72.4% (21/29) reg_03//000065_034_s00.tif 000066_034_s01.png 199 -0.632767 ['-0.632767'] 199 -0.773687 ['-0.773687'] 199 -0.959746 ['-0.959746']
 75.9% (22/29) reg_03//000066_034_s01.tif 000065_035_s00.png 199 -0.596866 ['-0.596866'] 199 -0.757958 ['-0.757958'] 199 -0.961571 ['-0.961571']
 79.3% (23/29) reg_03//000065_035_s00.tif 000066_035_s01.png 199 -0.571837 ['-0.571837'] 199 -0.692904 ['-0.692904'] 199 -0.956850 ['-0.956850']
 82.8% (24/29) reg_03//000066_035_s01.tif 000067_035_s00.png 199 -0.613928 ['-0.613928'] 199 -0.766699 ['-0.766699'] 199 -0.964148 ['-0.964148']
 86.2% (25/29) reg_03//000067_035_s00.tif 000068_035_s01.png 199 -0.594761 ['-0.594761'] 199 -0.703181 ['-0.703181'] 199 -0.957384 ['-0.957384']
 89.7% (26/29) reg_03//000068_035_s01.tif 000067_036_s00.png 199 -0.633756 ['-0.633756'] 199 -0.785304 ['-0.785304'] 199 -0.964226 ['-0.964226']
 93.1% (27/29) reg_03//000067_036_s00.tif 000068_036_s01.png 199 -0.736413 ['-0.736413'] 199 -0.776440 ['-0.776440'] 199 -0.956672 ['-0.956672']
 96.6% (28/29) reg_03//000068_036_s01.tif 000069_036_s00.png 199 -0.664536 ['-0.664536'] 199 -0.801658 ['-0.801658'] 199 -0.961168 ['-0.961168']
100.0% (29/29) reg_03//000069_036_s00.tif 000070_036_s01.png 199 -0.743802 ['-0.743802'] 199 -0.774595 ['-0.774595'] 199 -0.963514 ['-0.963514']
